…
Have a closer look at the `entity` variable. Not all entities are countries; some rows show aggregate data for regional / economic groupings (e.g. Eastern Africa, Low Income Food Deficit Countries), or for old geographic groupings (e.g. USSR, Ethiopia PDR). These are the rows where `code` equals NA or is more than 3 digits long. I'm going to drop the rows for these entities and just focus on the countries. I'm going to store this filtered dataset in `supply_new`.


```r
# List entities that do not have a code
supply %>% 
  filter(is.na(code)) %>% 
  summarise(unique(entity))
```

```
## # A tibble: 34 x 1
##    `unique(entity)`       
##    <chr>                  
##  1 Africa                 
##  2 Americas               
##  3 Asia                   
##  4 Asia, Central          
##  5 Australia & New Zealand
##  6 Belgium-Luxembourg     
##  7 Caribbean              
##  8 Central America        
##  9 Eastern Africa         
## 10 Eastern Asia           
## # ... with 24 more rows
```
…
