…
```r
# Q: Is the denominator for `prop` all babies or babies of that sex?
# A: Must be babies of that sex - proportions for each sex add up to 0.92 - 0.94 
# (Note that names used <5 times are not included, so `prop` is never going to total 1.0)
babynames_usa %>% 
  group_by(year, sex) %>% 
  summarise(
    total_n = sum(n), 
    total_prop = sum(prop)
    )
```

```
## # A tibble: 276 x 4
## # Groups:   year [138]
##     year sex   total_n total_prop
##    <dbl> <chr>   <int>      <dbl>
##  1  1880 F       90993      0.932
##  2  1880 M      110491      0.933
##  3  1881 F       91953      0.930
##  4  1881 M      100743      0.930
##  5  1882 F      107847      0.932
##  6  1882 M      113686      0.932
##  7  1883 F      112319      0.936
##  8  1883 M      104627      0.930
##  9  1884 F      129020      0.938
## 10  1884 M      114442      0.932
## # ... with 266 more rows
```

Okay, the small piece of analysis above indicates the denominator must be babies of that sex, but I still don't fully understand what figures were used to calculate each proportion. Is the denominator in the `births` data? I don't think so.


```r
# Q: Is the denominator in the `births` data?
# A: No, I don't thinks so - this information isn't split by sex
births_usa
```

```
## # A tibble: 109 x 2
##     year  births
##    <int>   <int>
##  1  1909 2718000
##  2  1910 2777000
##  3  1911 2809000
##  4  1912 2840000
##  5  1913 2869000
##  6  1914 2966000
##  7  1915 2965000
##  8  1916 2964000
##  9  1917 2944000
## 10  1918 2948000
## # ... with 99 more rows
```

Can the denominator be found in the `applicants` data? I think maybe it can, let's check a few years of data.


```r
# Q: Is the denominator in the `applicants` data?
# A: Perhaps, this data is split by sex.
applicants_usa
```

```
## # A tibble: 276 x 3
##     year sex    n_all
##    <int> <chr>  <int>
##  1  1880 F      97605
##  2  1880 M     118400
##  3  1881 F      98855
##  4  1881 M     108282
##  5  1882 F     115695
##  6  1882 M     122031
##  7  1883 F     120059
##  8  1883 M     112477
##  9  1884 F     137586
## 10  1884 M     122738
## # ... with 266 more rows
```
…
