…
#### Most common title words
**Q:** What were the most common words used in paper titles across all years?   
**A:** (see list below). 


```r
# Most common words?
title_words %>% 
  count(word, sort = TRUE) %>%
  rename(word_freq = n) %>% 
  print(n = 20)
```

```
## # A tibble: 12,032 x 2
##    word          word_freq
##    <chr>             <int>
##  1 evidence           3170
##  2 policy             1531
##  3 market             1517
##  4 effects            1426
##  5 trade              1152
##  6 labor              1077
##  7 capital            1072
##  8 economic           1049
##  9 health             1018
## 10 u.s                1008
## 11 financial           989
## 12 growth              912
## 13 markets             851
## 14 international       835
## 15 tax                 828
## 16 risk                812
## 17 monetary            753
## 18 exchange            729
## 19 social              726
## 20 income              712
## # ... with 12,012 more rows
```
…
