…
I want the electric stations data to be broadly comparable to the EV registrations data, so my plan was to exclude stations that opened after December 2020. However, the [data dictionary for stations](https://afdc.energy.gov/data_download/alt_fuel_stations_format) notes that `open_date` may be approximate (or added through automated data feeds from charging networks). Looking at the data, there does seem to be some weird spikes in the number of stations that opened on certain days (see 27th Jan 2021 as an example).  


```r
# Q. Any Available stations that opened after the end of Dec 2020?
# A. Yes (n >20,000). The number that opened on 27th Jan 2021 looks suspiciously high though (>10,000).
stations_elec %>%
  filter(status_code == "E" & open_date > lubridate::ymd("2020-12-31")) %>% 
  count(open_date, sort = TRUE)
```

```
## # A tibble: 362 x 2
##    open_date                  n
##    <chr>                  <int>
##  1 2021/01/27 00:00:00+00 10444
##  2 2021/10/25 00:00:00+00   841
##  3 2021/01/15 00:00:00+00   654
##  4 2021/09/21 00:00:00+00   191
##  5 2021/01/05 00:00:00+00   165
##  6 2021/09/02 00:00:00+00   143
##  7 2021/09/05 00:00:00+00   132
##  8 2021/09/08 00:00:00+00   132
##  9 2021/09/07 00:00:00+00   122
## 10 2021/10/27 00:00:00+00   122
## # ... with 352 more rows
```

```r
# Q. Any Planned stations where the expected opening date is after end of Dec 2020?
# A. Yes (n = 69).
stations_elec %>% 
  filter(status_code == "P" & expected_date > lubridate::ymd("2020-12-01")) %>% 
  count(expected_date, sort = TRUE)
```

```
## # A tibble: 26 x 2
##    expected_date              n
##    <chr>                  <int>
##  1 2021/11/01 00:00:00+00    15
##  2 2022/11/01 00:00:00+00    11
##  3 2021/06/30 00:00:00+00     6
##  4 2021/07/31 00:00:00+00     6
##  5 2021/08/31 00:00:00+00     5
##  6 2021/06/01 00:00:00+00     3
##  7 2021/01/31 00:00:00+00     2
##  8 2021/04/15 00:00:00+00     2
##  9 2022/03/01 00:00:00+00     2
## 10 2021/03/01 00:00:00+00     1
## # ... with 16 more rows
```
…
